[
    {
      "ruta": "img_Prueba/reloj_1.webp",
      "portada": 1,
      "id": 1
    },
    {
        "ruta": "img_Prueba/reloj_2.webp",
        "portada": 0,
        "id": 2
      },
      {
        "ruta": "img_Prueba/reloj_3.webp",
        "portada": 0,
        "id": 3
      },
      {
        "ruta": "img_Prueba/reloj_4.webp",
        "portada": 0,
        "id": 4
      }
  ]